{"url":"\/","ip":"73.146.155.129","pid":21217,"date":"2016-11-29T15:19:32+00:00","runtime":{"total":0.55485391616821,"wordpress":2.0027160644531e-5,"theme":0,"plugins":0.55305886268616,"profile":0.55482411384583,"breakdown":{"p3-profiler":0.55305886268616}},"memory":23068672,"stacksize":5,"queries":231}
{"url":"\/?s=Omega3","ip":"73.146.155.129","pid":24349,"date":"2016-11-29T15:19:33+00:00","runtime":{"total":0.67775988578796,"wordpress":2.1934509277344e-5,"theme":0,"plugins":0.67655324935913,"profile":0.6777286529541,"breakdown":{"p3-profiler":0.67655324935913}},"memory":10485760,"stacksize":5,"queries":189}
{"url":"\/tag\/fatty-acids\/","ip":"73.146.155.129","pid":24349,"date":"2016-11-29T15:19:34+00:00","runtime":{"total":0.36796522140503,"wordpress":2.0980834960938e-5,"theme":0,"plugins":0.36784291267395,"profile":0.36793518066406,"breakdown":{"p3-profiler":0.36784291267395}},"memory":6291456,"stacksize":5,"queries":197}
{"url":"\/wp-admin\/","ip":"73.146.155.129","pid":21178,"date":"2016-11-29T15:19:35+00:00","runtime":{"total":3.5006129741669,"wordpress":2.1934509277344e-5,"theme":0,"plugins":3.500501871109,"profile":3.5005819797516,"breakdown":{"p3-profiler":3.500501871109}},"memory":23068672,"stacksize":5,"queries":194}
{"url":"\/category\/omega3\/","ip":"73.146.155.129","pid":24347,"date":"2016-11-29T15:19:39+00:00","runtime":{"total":0.37461304664612,"wordpress":2.3841857910156e-5,"theme":0,"plugins":0.37450075149536,"profile":0.3745813369751,"breakdown":{"p3-profiler":0.37450075149536}},"memory":14680064,"stacksize":5,"queries":198}
{"url":"\/category\/cancer-2\/","ip":"73.146.155.129","pid":24347,"date":"2016-11-29T15:19:41+00:00","runtime":{"total":0.37694597244263,"wordpress":2.4080276489258e-5,"theme":0,"plugins":0.37686395645142,"profile":0.37691402435303,"breakdown":{"p3-profiler":0.37686395645142}},"memory":8388608,"stacksize":5,"queries":196}
{"url":"\/?wc-ajax=get_refreshed_fragments","ip":"73.146.155.129","pid":21186,"date":"2016-11-29T15:19:42+00:00","runtime":{"total":0.18261790275574,"wordpress":1.7881393432617e-5,"theme":0,"plugins":0.18254327774048,"profile":0.1825909614563,"breakdown":{"p3-profiler":0.18254327774048}},"memory":2097152,"stacksize":5,"queries":108}
{"url":"\/category\/heart-health\/","ip":"73.146.155.129","pid":24347,"date":"2016-11-29T15:19:43+00:00","runtime":{"total":0.38883399963379,"wordpress":1.9073486328125e-5,"theme":0,"plugins":0.38876104354858,"profile":0.38880705833435,"breakdown":{"p3-profiler":0.38876104354858}},"memory":6291456,"stacksize":5,"queries":200}
{"url":"\/category\/eye-health\/","ip":"73.146.155.129","pid":21217,"date":"2016-11-29T15:19:44+00:00","runtime":{"total":0.26509308815002,"wordpress":1.7881393432617e-5,"theme":0,"plugins":0.26501774787903,"profile":0.26506614685059,"breakdown":{"p3-profiler":0.26501774787903}},"memory":12582912,"stacksize":5,"queries":196}
{"url":"\/","ip":"73.146.155.129","pid":21217,"date":"2016-11-29T15:19:45+00:00","runtime":{"total":0.24584722518921,"wordpress":1.8119812011719e-5,"theme":0,"plugins":0.24577188491821,"profile":0.24582123756409,"breakdown":{"p3-profiler":0.24577188491821}},"memory":2097152,"stacksize":5,"queries":208}
{"url":"\/10-years-of-omega3-innovations-looking-back-and-forward-to-the-future\/","ip":"73.146.155.129","pid":21217,"date":"2016-11-29T15:19:46+00:00","runtime":{"total":0.32492995262146,"wordpress":1.8119812011719e-5,"theme":0,"plugins":0.32485508918762,"profile":0.32490301132202,"breakdown":{"p3-profiler":0.32485508918762}},"memory":12582912,"stacksize":5,"queries":208}
{"url":"\/how-he-cut-the-chronic-pain-with-omega-cure-extra-strength\/","ip":"73.146.155.129","pid":24174,"date":"2016-11-29T15:19:47+00:00","runtime":{"total":0.46360993385315,"wordpress":1.8119812011719e-5,"theme":0,"plugins":0.46351790428162,"profile":0.46358370780945,"breakdown":{"p3-profiler":0.46351790428162}},"memory":16777216,"stacksize":5,"queries":207}
{"url":"\/tips-for-overcoming-your-struggle-with-oily-textures\/","ip":"73.146.155.129","pid":24391,"date":"2016-11-29T15:19:49+00:00","runtime":{"total":0.50017905235291,"wordpress":2.1934509277344e-5,"theme":0,"plugins":0.50007486343384,"profile":0.50014925003052,"breakdown":{"p3-profiler":0.50007486343384}},"memory":27262976,"stacksize":5,"queries":212}
{"url":"\/what-the-history-of-cod-liver-oil-teaches-us-about-omega-3-potency\/","ip":"73.146.155.129","pid":21070,"date":"2016-11-29T15:19:50+00:00","runtime":{"total":0.36025500297546,"wordpress":2.1219253540039e-5,"theme":0,"plugins":0.36016011238098,"profile":0.36022567749023,"breakdown":{"p3-profiler":0.36016011238098}},"memory":16777216,"stacksize":5,"queries":207}
{"url":"\/wp-admin\/","ip":"73.146.155.129","pid":24391,"date":"2016-11-29T15:19:51+00:00","runtime":{"total":2.5464382171631,"wordpress":2.1934509277344e-5,"theme":0,"plugins":2.5463607311249,"profile":2.5464062690735,"breakdown":{"p3-profiler":2.5463607311249}},"memory":10485760,"stacksize":5,"queries":199}
{"url":"\/wp-admin\/edit.php","ip":"73.146.155.129","pid":21186,"date":"2016-11-29T15:19:56+00:00","runtime":{"total":3.470153093338,"wordpress":1.3113021850586e-5,"theme":0,"plugins":3.4700837135315,"profile":3.4701333045959,"breakdown":{"p3-profiler":3.4700837135315}},"memory":10485760,"stacksize":5,"queries":188}
{"url":"\/wp-admin\/plugins.php","ip":"73.146.155.129","pid":24311,"date":"2016-11-29T15:20:01+00:00","runtime":{"total":5.8436000347137,"wordpress":1.7166137695312e-5,"theme":0,"plugins":5.8424847126007,"profile":5.8435740470886,"breakdown":{"p3-profiler":5.8424847126007}},"memory":8388608,"stacksize":5,"queries":145}
